{
  "banners": {
    "home": ["/img/banner/home.jpg", "/img/banner/home2.jpg"]
  },
  "products": [
    {
      "id": "10001",
      "slug": "puro-quebranta",
      "name": "Puro Quebranta",
      "img": "/img/pisco.svg",
      "features": {
        "Nota de cata": {
          "type": "text",
          "value": "Lorem Ipsum is simply dummy text"
        },
        "Origen": {
          "type": "text",
          "value": "Lorem Ipsum is simply dummy text"
        },
        "Presentaciones": {
          "type": "text",
          "value": "Lorem Ipsum is simply dummy text"
        },
        "Capacidad de producto": {
          "type": "text",
          "value": "Lorem Ipsum is simply dummy text"
        },
        "Certificaciones": {
          "type": "text",
          "value": "Lorem Ipsum is simply dummy text"
        },
        "Medallas": {
          "type": "images",
          "value": ["/img/medalla1.png", "/img/medalla2.png"]
        }
      }
    },
    {
      "id": "10002",
      "slug": "acholado",
      "name": "Acholado",
      "img": "/img/pisco.svg",
      "features": {
        "Nota de cata": {
          "type": "text",
          "value": "Lorem Ipsum is simply dummy text"
        },
        "Origen": {
          "type": "text",
          "value": "Lorem Ipsum is simply dummy text"
        },
        "Presentaciones": {
          "type": "text",
          "value": "Lorem Ipsum is simply dummy text"
        },
        "Capacidad de producto": {
          "type": "text",
          "value": "Lorem Ipsum is simply dummy text"
        },
        "Certificaciones": {
          "type": "text",
          "value": "Lorem Ipsum is simply dummy text"
        },
        "Medallas": {
          "type": "images",
          "value": ["/img/medalla1.png", "/img/medalla2.png"]
        }
      }
    },
    {
      "id": "10003",
      "slug": "italia",
      "name": "Italia",
      "img": "/img/pisco.svg",
      "features": {
        "Nota de cata": {
          "type": "text",
          "value": "Lorem Ipsum is simply dummy text"
        },
        "Origen": {
          "type": "text",
          "value": "Lorem Ipsum is simply dummy text"
        },
        "Presentaciones": {
          "type": "text",
          "value": "Lorem Ipsum is simply dummy text"
        },
        "Capacidad de producto": {
          "type": "text",
          "value": "Lorem Ipsum is simply dummy text"
        },
        "Certificaciones": {
          "type": "text",
          "value": "Lorem Ipsum is simply dummy text"
        },
        "Medallas": {
          "type": "images",
          "value": ["/img/medalla1.png", "/img/medalla2.png"]
        }
      }
    },
    {
      "id": "10004",
      "slug": "mosto-verde-quebranta",
      "name": "Mosto Verde Quebranta",
      "img": "/img/pisco.svg",
      "features": {
        "Nota de cata": {
          "type": "text",
          "value": "Lorem Ipsum is simply dummy text"
        },
        "Origen": {
          "type": "text",
          "value": "Lorem Ipsum is simply dummy text"
        },
        "Presentaciones": {
          "type": "text",
          "value": "Lorem Ipsum is simply dummy text"
        },
        "Capacidad de producto": {
          "type": "text",
          "value": "Lorem Ipsum is simply dummy text"
        },
        "Certificaciones": {
          "type": "text",
          "value": "Lorem Ipsum is simply dummy text"
        },
        "Medallas": {
          "type": "images",
          "value": ["/img/medalla1.png", "/img/medalla2.png"]
        }
      }
    },
    {
      "id": "10005",
      "slug": "mosto-verde-italia",
      "name": "Mosto Verde Italia",
      "img": "/img/pisco.svg",
      "features": {
        "Nota de cata": {
          "type": "text",
          "value": "Lorem Ipsum is simply dummy text"
        },
        "Origen": {
          "type": "text",
          "value": "Lorem Ipsum is simply dummy text"
        },
        "Presentaciones": {
          "type": "text",
          "value": "Lorem Ipsum is simply dummy text"
        },
        "Capacidad de producto": {
          "type": "text",
          "value": "Lorem Ipsum is simply dummy text"
        },
        "Certificaciones": {
          "type": "text",
          "value": "Lorem Ipsum is simply dummy text"
        },
        "Medallas": {
          "type": "images",
          "value": ["/img/medalla1.png", "/img/medalla2.png"]
        }
      }
    }
  ]
}